Housing Market Outlier Detection & Regression Analysis
…
flagged_rows_before2009

## integer(0)

flagged_rows_after2009

##  [1] 514 515 516 517 518 519 520 521 522 523 524 525 526 527 528 529 530 531 532
## [20] 533 534 535 536 537 538 539 540 541 542 543

after2009[flagged_rows_after2009[1:30], c("Neighborhood", "SalePrice")]

## # A tibble: 30 × 2
##    Neighborhood SalePrice
##    <chr>            <dbl>
##  1 NAmes          142770.
##  2 NAmes          142770.
##  3 Gilbert        142770.
##  4 Gilbert        142770.
##  5 StoneBr        142770.
##  6 Gilbert        142770.
##  7 Gilbert        142770.
##  8 Gilbert        142770.
##  9 Gilbert        142770.
## 10 NAmes          142770.
## # ℹ 20 more rows
…
