NYC Flight Delay & Anomaly Detection
…
nrow(tFlightWeather)

## [1] 335220

# There are fewer rows after merging
# How many rows were lost
nrow(tFlights) - nrow(tFlightWeather)

## [1] 1556

# Which rows were omitted?
missingFlights = anti_join(tFlights, tWeather, by = c("origin", "time_hour"))
missingFlights

## # A tibble: 1,556 × 19
##     year month   day dep_time sched_dep_time dep_delay arr_time sched_arr_time
##    <int> <int> <int>    <int>          <int>     <dbl>    <int>          <int>
##  1  2013     1     1     1153           1200        -7     1450           1529
##  2  2013     1     1     1154           1200        -6     1253           1306
##  3  2013     1     1     1155           1200        -5     1517           1510
##  4  2013     1     1     1155           1200        -5     1312           1315
##  5  2013     1     1     1157           1200        -3     1452           1456
##  6  2013     1     1     1158           1200        -2     1256           1300
##  7  2013     1     1     1200           1200         0     1408           1356
##  8  2013     1     1     1202           1207        -5     1318           1314
##  9  2013     1     1     1203           1205        -2     1501           1437
## 10  2013     1     1     1203           1200         3     1519           1545
## # ℹ 1,546 more rows
## # ℹ 11 more variables: arr_delay <dbl>, carrier <chr>, flight <int>,
## #   tailnum <chr>, origin <chr>, dest <chr>, air_time <dbl>, distance <dbl>,
## #   hour <dbl>, minute <dbl>, time_hour <dttm>
…
